{
    "diagnostic.enable":true,
    "languageserver": {
        "ccls": {
            "command": "ccls",
            "filetypes": ["c", "cpp", "c.doxygen"],
            "rootPatterns": [".ccls", "compile_commands.json"],
            "initializationOptions": {
                "cache": {
                    "directory": ".ccls-cache"
                },
                "client": {
                    "snippetSupport": true
                }
            }
        }
    }
}
